скрипт обработки МЛ                                                                   3063  33   c560bb0a-849f-4020-aded-965858f7e645  query_ml.pix               
Execute script                                                                        2174  32   99473157-a613-4024-a4b0-509178b5ec34  open_kv_create.pix         
делаем запрос и наполняем виртуальную таблицу                                         1944  143  825208ca-86b4-4fbe-a875-c5f8cc5b8a42  main.pix                   
Execute script                                                                        1373  32   3ac04241-782b-4dc1-81cc-ba60a0a91128  create_fs_and_fill_kv.pix  
Проверка ошибки запуска                                                               981   143  3d28ed8e-587f-437e-ad0e-a0a12baf4a48  query_ml.pix               
выполнить скрипт с текущей датой                                                      814   125  b91a729b-3732-48e2-b338-0c81d9415886  query_ml.pix               
Execute script                                                                        540   33   7ddd012c-46d4-4299-b108-1ccc8527d83b  check_opened_ml.pix        
Ожидание окна ввода учетных данных                                                    465   143  71a70a00-3d59-4c60-9b4d-e341affac060  main.pix                   
заполнить номер МЛ в поле                                                             360   143  e24932b2-4bf4-4bb5-a091-5a28c7741ec9  query_ml.pix               
исполнение запроса sql к БД                                                           333   143  5757688e-c915-4ace-800f-47611cb6ec97  rlist_from_db.pix          
добавляем в список                                                                    266   143  422a01eb-4795-4113-8457-9b4553f32845  query_ml.pix               
fill new kv script                                                                    211   32   0491f0ef-ec72-42fa-9e00-0ab49e2704f8  open_kv_create.pix         
ожидать окно "Свойства"                                                               170   32   6ff5c8d6-d8fa-45ef-9913-7e4c6b180228  create_fs_and_fill_kv.pix  
Ожидание закрытия окна Выбор заказа                                                   168   89   6891c73c-fb26-4aaf-a9e7-2789755029ab  fill_kv_content_v1.2.pix   
ожидание загрузки Омеги                                                               163   143  10756922-1768-4752-b86e-637b0556b7ec  query_ml.pix               
Проверяем закрылось ли окно Фильтр ТМЦ                                                160   89   0180ee67-ae32-44c3-836d-8b57f408515a  fill_kv_content_v1.2.pix   
Expect Image                                                                          157   89   32eca85e-01de-4c45-bbf9-16f9cb4d3ed6  fill_kv_content_v1.2.pix   
ожидать закрытия окно "Свойства"                                                      147   32   fb643f2a-cc00-4d96-82d9-e285f014e29a  create_fs_and_fill_kv.pix  
Ожидать окно Фильтр ТМЦ                                                               142   90   c55affb4-9364-4c07-91ae-1d33f0c51b4f  fill_kv_content_v1.2.pix   
Ожидание закрытия окна Свойства                                                       126   89   5f8187ff-b21b-430a-93b0-ebfbd23bda54  fill_kv_content_v1.2.pix   
выполнить скрипт с предыдущей датой и списком оунеров                                 119   18   1d1b521c-05a3-4cf1-b605-7464151009e1  query_ml.pix               
Найти МЛ                                                                              115   143  3344f50d-8fa5-4af2-9907-15a66d1504e3  query_ml.pix               
Execute script                                                                        114   33   0c42a0b7-4ddf-4acd-8038-9bbef9881234  proces_rl_row.pix          
ожидать окно "Протокол: Расчет состава комплектовочной ведомости"                     114   31   c7114505-6c75-44c2-9b19-5b9c0d7229ee  create_fs_and_fill_kv.pix  
call save kv changes                                                                  98    31   b9a32288-9ba2-4367-b8c5-159eb3acf766  fill_kv_content_v1.2.pix   
Image is avaliable?                                                                   83    89   e71799ab-a844-4d3a-a677-9da3162de70d  fill_kv_content_v1.2.pix   
Нажатие кнопки ОК                                                                     82    89   c794ed04-f59f-4eea-8e29-f4c3384fe437  fill_kv_content_v1.2.pix   
Ожидать окно состав КВ                                                                71    90   1fb8df4c-8435-4fe1-b142-3e7ad191a47a  fill_kv_content_v1.2.pix   
Проверка существования контекстного меню                                              68    33   6b6b0331-5b37-4d20-bda1-47c28c4df208  open_kv_create.pix         
Expect UI Element                                                                     67    89   6e0749cd-d5f3-4588-8a3f-3f22a5097f65  fill_kv_content_v1.2.pix   
Expect Image                                                                          64    32   e33ffd87-dfc5-420f-80f3-4f89f5ada216  create_fs_and_fill_kv.pix  
UI click                                                                              62    143  e5135e0c-080f-4162-b817-8b1f1b041a97  query_ml.pix               
клик по "Сформировать состав"                                                         57    32   b8c0624b-45b4-4fd8-b5ff-7255e7102444  create_fs_and_fill_kv.pix  
получить состояние чекбокса                                                           52    33   8093278d-7118-4763-8c60-9368964b314a  check_opened_ml.pix        
Закрыть окно свойства                                                                 49    89   d8ab9998-16f0-4b00-b7bb-8b4c192a6625  fill_kv_content_v1.2.pix   
Ждать пока не закроется окно создания КВ                                              48    32   f4fa0ff5-9c7f-4f04-8c72-80a3f4e27e91  fill_new_kv.pix            
Проверка существования элемента "Комплектовочная ведомость"                           46    33   df29f765-504e-482d-8a85-e455e8715fdf  check_opened_ml.pix        
проверка существования предупреждения ("Внимание")                                    45    33   5924dc1f-0e4f-444b-82c1-4a21cf951305  open_kv_create.pix         
Нажать на вкладку свойства                                                            45    89   3d8dc785-a50d-4251-a307-a76c44fe3549  fill_kv_content_v1.2.pix   
клик по кнопке "ОК"                                                                   44    143  bf3fc12f-ee48-4abd-9fec-cedc27c4e05d  query_ml.pix               
UI click                                                                              43    32   7125114d-4dca-4aba-8ee4-5092d4d5c50d  fill_new_kv.pix            
Ожидание "Маршрутные листы"                                                           41    33   d8837d45-2ea6-48f7-a4c6-7e74ddb6a427  proces_rl_row.pix          
выбираем оунер по цеху                                                                40    143  ce1bb0d0-8d6c-4f06-9b0e-b4495ccbefda  query_ml.pix               
Нажать ОК                                                                             35    32   78b18b07-8e79-42eb-aa41-020fb7545f49  create_fs_and_fill_kv.pix  
выборка из rl_to_order                                                                35    32   7248200d-9717-436c-bc17-78a2e9b56972  create_fs_and_fill_kv.pix  
клик по кнопке "ОК"                                                                   33    143  4c3d2375-d683-4221-b6b9-347f170371fc  main.pix                   
Waiting                                                                               32    32   7828cac1-b1de-440c-bc53-589d3c63a403  fill_new_kv.pix            
Waiting                                                                               32    32   9fc030e6-7608-40da-83fe-2d46e5880db6  fill_new_kv.pix            
Waiting                                                                               32    32   b4981f43-a33e-4b13-8646-8ea7b1dbc581  create_fs_and_fill_kv.pix  
Введение имени пользователя                                                           31    143  a76dd1a6-2ff1-4d99-ad6a-e1cd8164cb52  main.pix                   
KG. Запрос к БД                                                                       31    32   1359c035-ebf9-4b9d-8e75-b11d8418b5ab  fill_kv_content_v1.2.pix   
Ждать пока не откроется окно создания КВ                                              27    33   87a01e19-448c-4f88-9a77-b6e153188430  open_kv_create.pix         
Expect UI Element                                                                     25    33   25b8fbb0-8bda-4873-a36c-ad29e736642d  open_kv_create.pix         
введение пароля                                                                       24    143  d447253a-45c9-49cb-a6e2-82ee74e3e08e  main.pix                   
Клик по рабочей области заказа, чтобы перенести курсор в эту область                  24    89   e0d80f13-2ed3-4aa9-9600-77f627c7fc67  fill_kv_content_v1.2.pix   
запуск Омеги                                                                          22    143  99f505f4-17e9-478a-9d1b-c4b714509ced  main.pix                   
отчет: записать номер МЛ в ячейку                                                     20    33   f23aae06-d6fc-45d5-bc6f-e1499113e404  proces_rl_row.pix          
Клик по окну Состав КВ                                                                19    90   b0d4ab7b-39d6-481c-949e-bd45e8c2ae5c  fill_kv_content_v1.2.pix   
парсим в строку                                                                       18    143  4a629cc2-cd65-41be-89fb-5c4dd00e2eaf  main.pix                   
клик по элементу контекстного меню "Внести изменения"                                 16    32   7a7f31b1-fa58-45ba-acff-a94995253bce  save_kv_change.pix         
Закрыть Омегу если открыта                                                            14    286  7a989eb0-67d8-4cae-a24a-58588811606d  main.pix                   
Kill processes                                                                        14    143  ae4dda6c-c853-46c9-b946-9c486f18c3fa  main.pix                   
UI click                                                                              14    32   bb8d841b-f589-48ed-85c5-4db17e790d90  save_kv_change.pix         
Change language                                                                       11    143  fafb79d8-1978-4838-9452-3bc23ecb22a5  query_ml.pix               
Правый клик по комплектовочной ведомости на рабочем столе                             11    32   7048c1a2-98c7-4712-a16f-43731fc64157  create_fs_and_fill_kv.pix  
Открыть фильтр МЛ                                                                     10    33   25aa5e75-e60d-4597-86cc-726744a00209  check_opened_ml.pix        
нажать OK (the same as in main)                                                       10    33   7e6bd59c-d788-4b69-be6d-12562b33e29f  check_opened_ml.pix        
нажать "ОК"                                                                           8     32   ff525338-475e-4ba7-bd86-e6c4eba65565  save_kv_change.pix         
Клик по панели МЛ                                                                     7     33   1b2d20d3-beee-485a-a3e2-6356d97d9065  open_kv_create.pix         
UI click                                                                              7     32   34ec390f-8e6a-45b7-ab30-d85007065540  fill_new_kv.pix            
нажать "ОК"                                                                           7     32   7642bcc7-e77a-4b95-bf0b-7f412722cb98  create_fs_and_fill_kv.pix  
Клик на документы в контестном меню                                                   6     33   317ed2b3-5fc5-44b5-a33d-f24316830358  open_kv_create.pix         
нажать "ОК"                                                                           6     32   1a715287-e0f4-4e79-bc9d-d22b8ab852c5  create_fs_and_fill_kv.pix  
заполнить номер МЛ в поле                                                             5     33   76baecb0-b24f-49c1-82aa-6f03e4ee3e34  check_opened_ml.pix        
Клик на Комплектовочные ведомости в меню                                              5     33   3d2fb954-9fd5-46f4-93e6-5479a7eec5a2  open_kv_create.pix         
Клик Создать для цеха/кладовой                                                        5     33   b89d494a-6233-42dc-b10d-9ae289829738  open_kv_create.pix         
Read file                                                                             4     143  d91422a2-de79-490a-adc9-debf81844b67  main.pix                   
проверка существования элемента на экране "Технологический комплект"                  4     32   fa610f4c-cba8-4bdf-b076-59f26b41ba0c  create_fs_and_fill_kv.pix  
получение пути к омеге                                                                3     143  fa99185d-5819-4948-b736-f7dec19c91da  main.pix                   
копирование шаблона отчета                                                            3     143  a778a040-12e5-4f0c-b0f8-76a1e899f4ff  main.pix                   
Проверка наличия панели "Рабочий стол"                                                3     143  07941a27-2918-4f8f-a03f-d057d3f2caf1  query_ml.pix               
JSON                                                                                  2     143  5d2dde58-ac47-415e-9371-6af1702011fa  query_ml.pix               
Press hotkey                                                                          2     143  aa3ad29a-4538-4b37-9efa-bd06e8bcab74  query_ml.pix               
Highlight UI element on screen                                                        2     32   110b6f8b-914b-456a-b6c9-5e8133ec3739  fill_new_kv.pix            
отчет: записать текущую дату в ячейку                                                 2     31   2b7720cb-2480-4343-9bd4-7cce9969815a  proces_rl_row.pix          
Catch                                                                                 1     143  e8c7635c-73de-43df-89d8-975dd413b9d3  main.pix                   
чтение файла со значениями цехов                                                      1     143  8b7792a9-8b95-4a5c-8a6c-6a6e8e7cdf05  query_ml.pix               
Цикл по цехам                                                                         1     286  ded3db97-ff5b-4be3-8554-7e617d7de50a  query_ml.pix               
вытаскиваем из первой строки оунер                                                    1     143  a728946c-1255-4b56-b802-45091a2ca174  query_ml.pix               
Set value                                                                             1     143  29583929-50fc-4893-b683-19a4f6ec54fb  rlist_from_db.pix          
Нажать SHIFT+ALT+O, чтобы открыть окно поиска                                         1     143  8915d792-a0a7-4ac8-b8ae-68d85b1f2fe0  query_ml.pix               
Закрыть Омегу                                                                         1     143  07c88878-03d6-4630-a316-41819c828743  query_ml.pix               
Kill processes                                                                        1     143  89686725-ea6a-4fc7-bd0c-a6c5007ca4aa  query_ml.pix               
отчет: записать номер цеха в ячейку                                                   1     33   9462ea83-bc5e-4ef8-9230-0f7fff57c57a  proces_rl_row.pix          
Пока i < 10, нажимать TAB                                                             1     352  05fe327c-4a55-4697-ad3e-5c93ef774bc2  fill_new_kv.pix            
While …                                                                               1     801  055937a1-5414-49f6-bf24-2607fdb34356  fill_kv_content_v1.2.pix   
Press hotkey                                                                          1     712  d125535b-7a22-4cf8-9059-b122f48078d5  fill_kv_content_v1.2.pix   
Set value                                                                             1     712  ede010b5-5f3a-4bfc-8c5a-e11eebc9b052  fill_kv_content_v1.2.pix   
While …                                                                               1     712  515afcc5-68cf-4943-9355-999e5bdd5b30  fill_kv_content_v1.2.pix   
Press hotkey                                                                          1     623  2da73700-3903-470d-9085-97c53b34453a  fill_kv_content_v1.2.pix   
Set value                                                                             1     623  6370941f-8290-4337-b99d-9fe198bc8262  fill_kv_content_v1.2.pix   
While …                                                                               1     623  f632f5d2-cf8d-480c-b693-ba193566ae7e  fill_kv_content_v1.2.pix   
Press hotkey                                                                          1     534  f8bb41f1-de38-4f96-89c8-7538e9f3d71a  fill_kv_content_v1.2.pix   
While …                                                                               1     712  6d19f4f0-2a06-40a5-89ab-ba1a5657d728  fill_kv_content_v1.2.pix   
Press hotkey                                                                          1     623  897e7bad-10c3-4062-9adf-5cb6211c84c1  fill_kv_content_v1.2.pix   
Set value                                                                             1     623  c9bce5a0-26d6-49b7-a0df-a5d9c836d043  fill_kv_content_v1.2.pix   
Image is avaliable?                                                                   1     1    1a47b01e-eb63-41cb-ab27-57803664b1fe  fill_kv_content_v1.2.pix   
Закрыть окно Фильтр ТМЦ                                                               1     1    1e59cbff-970d-454c-a38f-312098795cb5  fill_kv_content_v1.2.pix   
Execute script                                                                        1     1    fa918486-1f06-46e0-8f3c-555531a10487  check_opened_ml.pix        
Нажать кнопку Cancel                                                                  1     1    6434b279-6f0c-4e52-ab09-b73caf1bedf2  open_kv_create.pix         
Try                                                                                   0     143  98e4bc4b-17ad-401e-8f22-fe736bdd1a9e  main.pix                   
читаем конфиг                                                                         0     143  41cdc1fc-66f7-4114-9385-0ab80ba2a150  main.pix                   
JSON                                                                                  0     143  79aebf52-cbf0-4e22-8973-49d32a063606  main.pix                   
получение имени пользователя их конфига                                               0     143  39aae90a-70b4-401f-b045-a7ac09796d4a  main.pix                   
получение пароля из конфига                                                           0     143  ba7ce82e-9578-46f3-8a12-4edff5719ba0  main.pix                   
объявление имени временного отчета                                                    0     143  73cb8bd3-edc0-485b-90a8-d6bad04be2c6  main.pix                   
Path exists                                                                           0     143  c4b7a52b-387f-41b4-9557-b2a17d9c827e  main.pix                   
Conditional operator                                                                  0     143  5b62f3ff-9290-40f1-b8d9-4e9f4c8418bc  main.pix                   
True                                                                                  0     143  e4c805c3-ed4a-4f6f-8554-9fcea4830039  main.pix                   
Try/catch                                                                             0     143  fa29a405-dbaf-4e35-ac65-e346dbb8c4c6  main.pix                   
Try                                                                                   0     143  40cda57b-751b-4ad4-a949-9a8b065e2cb2  main.pix                   
Try/catch                                                                             0     143  d3529488-34ed-4a70-8191-f4760dbd9c90  main.pix                   
Try                                                                                   0     143  d4ca6cf4-42fe-4fdd-ac01-ab25a9c93a64  main.pix                   
создание пустой таблицы rl_table (route list)                                         0     143  ecf8bdfd-6d42-4bd1-b451-423e8265cafa  main.pix                   
изначально пустой список оунеров                                                      0     143  dc575adf-cb02-42a7-9328-7bc22a4001af  query_ml.pix               
если в выборке что-то есть                                                            0     143  3e9ad6d2-11a2-4388-af22-b6d48c94dbf3  query_ml.pix               
True                                                                                  0     143  a2e3b4e5-6eb5-474c-b23a-04990787247c  query_ml.pix               
соединяем полученный список через запятую                                             0     143  d4e74b45-348c-40f1-96ba-05df4d8c5e67  query_ml.pix               
получение текущих даты и времени                                                      0     143  bc6651ca-dad9-4e3a-9831-aa9ad2b7a620  query_ml.pix               
получение текущего времени                                                            0     143  4610c82e-3aee-49c2-9f8a-3702e3f4b20a  query_ml.pix               
получаем текущий час для определения выборки (брать сегодняшний день или предыдущий)  0     143  85654dbd-0bc6-4634-9d44-916cae1bc51d  query_ml.pix               
если время между 00:00-03:00 - берем предыдущую дату                                  0     143  4dd05aa7-1a23-44b5-a952-0f2250374e64  query_ml.pix               
True                                                                                  0     18   4e502935-0eaf-47b3-8e91-b5e02bb4164b  query_ml.pix               
Set value                                                                             0     143  9a1f72e2-0403-4908-8d99-a9f060df5c27  rlist_from_db.pix          
Try/catch                                                                             0     286  daab8547-c201-41f0-9f30-f1dce90061c0  rlist_from_db.pix          
Try                                                                                   0     143  37936572-2109-44b8-8254-1e638edd1160  rlist_from_db.pix          
Set value                                                                             0     143  aa6897c3-35e8-4889-a76f-8aaa130c9742  rlist_from_db.pix          
чтение файла указанного в конфиге со списком МЛ                                       0     143  3d1a64e6-b145-46a0-97db-11ccb92d8528  rlist_from_db.pix          
Catch                                                                                 0     143  7e557eb1-6492-4b77-88f3-42f3e29eb9bf  rlist_from_db.pix          
переменной sql присвоить запрос к БД                                                  0     143  7a20c6f7-c3e3-4b5c-b190-9621a3e9e4ec  rlist_from_db.pix          
строка соединения с БД (connect string)                                               0     143  86d0d4e2-f79e-4876-b9eb-24725d609670  rlist_from_db.pix          
создание подключения к БД по строке соединения с БД                                   0     143  59efd0c9-466f-4de3-968a-39bef8e31765  rlist_from_db.pix          
Set value                                                                             0     143  f1c3ae8e-9a03-441c-8a50-df68843c738a  rlist_from_db.pix          
текущая строка в отчете excel                                                         0     143  370de575-3cdd-4d0f-87e5-b34aba3f2916  query_ml.pix               
Conditional operator                                                                  0     143  b1813273-17cb-495d-bddf-33ba4acd5e7a  query_ml.pix               
False                                                                                 0     143  190b4d69-52a1-41ec-af5f-d83a1e40eb96  query_ml.pix               
Проверка наличия панели "Рабочий стол"                                                0     143  134f5891-3cef-48d7-b1a2-97fb5cec8c83  query_ml.pix               
Conditional operator                                                                  0     143  a71b5e4f-9349-4c1d-a325-dec0f2284b34  query_ml.pix               
True                                                                                  0     143  d6c22798-d80f-4ebb-8815-8092a9ed9d7c  query_ml.pix               
Открыть окно "Фильтр маршрутных листов"                                               0     143  30a6d4fd-23e7-480f-8c83-cc8f07e1927e  query_ml.pix               
Нажать CTRL+A, чтобы затереть то, что уже там есть                                    0     143  a199499b-bdc6-4eae-ac4f-6bdc943ba018  query_ml.pix               
Нажать ENTER                                                                          0     143  70c74488-15e1-4528-bd0a-9ecaf6d3df6d  query_ml.pix               
Цикл по строкам таблицы rltable (Cycle for rl_table rows)                             0     176  b305dcbc-274e-4d82-a29a-e7139bb41d2b  query_ml.pix               
Try                                                                                   0     143  c6ef20f6-d862-44e4-8c2e-19003ff772fe  query_ml.pix               
False                                                                                 0     125  236836ff-b7ee-436a-998d-531199ab04cf  query_ml.pix               
Set value                                                                             0     33   9661289f-d2cf-44e6-9a58-da4d8441271d  query_ml.pix               
Set value                                                                             0     33   afea4f04-98d2-47f5-8e1d-43568f7c0a1d  query_ml.pix               
Try/catch                                                                             0     35   c438c659-d54e-4ce6-9f2b-432889d30d4d  query_ml.pix               
Try                                                                                   0     33   ae396953-cd3d-4446-939e-9fb62c938b23  query_ml.pix               
list num                                                                              0     33   baf58b24-fa32-4c29-a2d1-7a9f6e128b5c  proces_rl_row.pix          
owner num                                                                             0     33   dfc35da9-3bc0-486f-81bd-42df811b4c87  proces_rl_row.pix          
из оунер получаем номер цеха                                                          0     33   8fdb7e8d-96c7-4d17-958a-b641f7cf7e4c  proces_rl_row.pix          
и снова в owner присваиваем. (надо бы другое имя)                                     0     33   06b451f5-209f-46aa-ba87-c0c2517db546  proces_rl_row.pix          
обрезаем хвост начиная с первого пробела                                              0     33   531230b2-0704-4c12-ba88-ae55a8977056  proces_rl_row.pix          
orders                                                                                0     33   4cb4b808-f62e-4211-ae1b-5ccb0eac78d7  proces_rl_row.pix          
insertdate                                                                            0     33   3249b858-7bbb-41bd-8554-2059680fc9cc  proces_rl_row.pix          
sign                                                                                  0     33   7e3a880e-fd08-4693-b5b8-6b77c6f003d6  proces_rl_row.pix          
mlnum                                                                                 0     33   61f8fa20-0af6-4d75-8df8-7e1ed85498f0  proces_rl_row.pix          
отчет: записать значение в ячейку                                                     0     33   899c5e84-a812-4653-8092-9dff60abf83d  proces_rl_row.pix          
отчет: записать значение в ячейку                                                     0     33   c2116a4a-f5c7-4f33-b466-2a38775ec8f9  proces_rl_row.pix          
отчет: записать текущую дату в ячейку                                                 0     33   afe28ccc-9837-45a6-91fa-5cf313cef03e  proces_rl_row.pix          
Conditional operator                                                                  0     33   7e2e5f48-ae48-48aa-8e75-fe12e515c31e  check_opened_ml.pix        
False                                                                                 0     32   d11af870-5421-4744-a7b5-f737e6bba071  check_opened_ml.pix        
открыт фильтр отчёта                                                                  0     33   bb0450fb-3939-4159-b378-0481d5c43bd1  check_opened_ml.pix        
Try                                                                                   0     33   95125ba0-8ffe-475e-b267-57efc12befbf  check_opened_ml.pix        
проверить состояние чекбокса                                                          0     33   6d5d72f3-b9ac-4cdd-828d-2ba749f9acf0  check_opened_ml.pix        
False                                                                                 0     33   1ee942e5-5fb0-44ae-a019-117cf1f0a1d1  check_opened_ml.pix        
created = false                                                                       0     33   600507da-b1d4-4e06-aad1-5a6863c4ae96  check_opened_ml.pix        
Вызов контекстного меню                                                               0     33   4020bf82-b057-4b6a-b03d-137f34dba65c  open_kv_create.pix         
Conditional operator                                                                  0     33   78166b7f-6656-4482-ab71-2f334ceedde3  open_kv_create.pix         
True                                                                                  0     33   e4f1f5cb-c87b-4005-9cda-337bc97f9b5f  open_kv_create.pix         
second level                                                                          0     33   d94866ba-958f-40a7-a3ff-7318f171c20c  open_kv_create.pix         
if table warning                                                                      0     33   2f5ef7ba-9c25-4463-9f68-4dad766dd24e  open_kv_create.pix         
False                                                                                 0     33   859e6ec8-6301-4b47-8827-39283b213894  open_kv_create.pix         
Try/catch                                                                             0     34   e5ef8f69-777c-41b7-8953-f9d11a861a43  open_kv_create.pix         
Try                                                                                   0     33   a23d9002-2974-4c9e-9adf-30b2d2e1d736  open_kv_create.pix         
Try/Catch Окно создания КВ                                                            0     32   800627e2-6e31-4e2d-97c4-eb9d4ca3bd26  fill_new_kv.pix            
Try                                                                                   0     32   5e42819e-965b-423d-9c06-e219b7cf40e1  fill_new_kv.pix            
Create a database connection                                                          0     32   5e1c9a1b-d743-4592-93e6-940ebf37230d  fill_new_kv.pix            
Получить код цеха из БД                                                               0     32   25310f6f-30dd-4b31-872b-8ef82c279065  fill_new_kv.pix            
Set value                                                                             0     32   7975a6bf-d2d7-42d8-a22f-290c668f5009  fill_new_kv.pix            
Нажать TAB                                                                            0     32   2e381bcf-f24e-41b6-909b-702ce567856f  fill_new_kv.pix            
Нажать TAB                                                                            0     32   7e56aded-cd6f-46c5-8deb-a2c33b943b67  fill_new_kv.pix            
Save in clipboard                                                                     0     32   7817bdb5-f897-41f3-a67c-23bedbc588e7  fill_new_kv.pix            
Нажать CTRL+V                                                                         0     32   f48eb9ad-d990-48b5-88df-4062982ca1d9  fill_new_kv.pix            
Обнулить итератор i = 0                                                               0     32   b6ba384c-29df-441e-9b41-1aec62c574db  fill_new_kv.pix            
Нажать TAB                                                                            0     320  172bc49e-8370-4886-912e-70195f4147b1  fill_new_kv.pix            
i++                                                                                   0     320  d0b2829b-8c6b-480c-b2df-567925dc02d4  fill_new_kv.pix            
Нажать чекбокс пробелом                                                               0     32   ff4b817c-ba3f-47f1-93fd-96a716d3d780  fill_new_kv.pix            
код подразделения                                                                     0     32   b5445d4e-dcda-4bb0-99cb-ce47761602b2  fill_new_kv.pix            
Нажать TAB                                                                            0     32   f896c1e6-40fa-41d8-a58c-92edf51cca58  fill_new_kv.pix            
Нажать TAB                                                                            0     32   a9fba038-a338-4c50-bc1d-8d6844780bd6  fill_new_kv.pix            
Save in clipboard                                                                     0     32   fe4ccf03-4513-4f57-a8d2-8403eb6a86ed  fill_new_kv.pix            
Press hotkey                                                                          0     32   e51262b3-7a0c-4a4d-a180-2bddcffef6ca  fill_new_kv.pix            
Press hotkey                                                                          0     32   42219972-cad7-423b-97a0-c4a61e8450cd  fill_new_kv.pix            
Закрыть окно создания кв                                                              0     32   ae8197c6-7db2-4754-ad1b-b68039ee55ba  fill_new_kv.pix            
created = true                                                                        0     32   b1826ca1-90a8-4ee1-81e2-cb953933f7d5  fill_new_kv.pix            
True                                                                                  0     32   852343e3-19da-4d93-bdb3-f226182a58e8  open_kv_create.pix         
Try/Catch окно 'Формирование состава'                                                 0     32   f748da78-1016-42a7-9c78-02b7c4df83cf  create_fs_and_fill_kv.pix  
Try                                                                                   0     32   d33b8b8a-317e-4c1d-ba0f-4acf3ff1490b  create_fs_and_fill_kv.pix  
Press hotkey                                                                          0     32   6ac6cd7e-d37e-4580-b207-cc0410654b93  create_fs_and_fill_kv.pix  
Press hotkey                                                                          0     32   473d68f7-7272-4276-9ffe-d83fb6fecad7  create_fs_and_fill_kv.pix  
Выбор значения "Технологический комплект" по изображениям                             0     32   8d754b6d-d663-4b58-8247-3c89f3cc5da1  create_fs_and_fill_kv.pix  
Try/Catch окно Выберите значения                                                      0     32   bc8dd7e8-29e5-426f-a654-582ba87bd7e6  create_fs_and_fill_kv.pix  
Try                                                                                   0     32   524f7cea-6c39-406b-8720-27345e52d095  create_fs_and_fill_kv.pix  
Conditional operator                                                                  0     32   bec824f9-8d21-474d-a603-4e0fed3c322d  create_fs_and_fill_kv.pix  
True                                                                                  0     32   f5d8d17c-c8fe-4e5d-835d-36ed574e21cc  create_fs_and_fill_kv.pix  
Try/Catch окно Свойства                                                               0     32   c8e205ec-155a-4d76-897f-f96c068d3889  create_fs_and_fill_kv.pix  
Try                                                                                   0     32   601293a1-857c-4b15-919e-54bba418d160  create_fs_and_fill_kv.pix  
закрыть окно "Протокол: Расчет состава комплектовочной ведомости"                     0     32   7c1dd36a-028b-4665-aec7-86178e8ccaed  create_fs_and_fill_kv.pix  
Create a database connection                                                          0     32   26a6bb2a-ba12-443b-b301-2e8b1181be3b  create_fs_and_fill_kv.pix  
Окно состав комплектовочной ведомости                                                 0     33   a5d94ecd-6df8-429c-9a9c-71c9db80a18c  create_fs_and_fill_kv.pix  
Try                                                                                   0     32   9e9ca7de-d28f-47dd-8f4c-52f3cd5e22f3  create_fs_and_fill_kv.pix  
Set value                                                                             0     32   7421a2e7-0b6a-4033-a82a-3c063a1b7e9d  fill_kv_content_v1.2.pix   
Set value                                                                             0     32   3ff8334f-bba3-440f-9ab2-8787f3352ac5  fill_kv_content_v1.2.pix   
Set value                                                                             0     32   5d7a1e68-2e82-459d-a6c9-621941503fff  fill_kv_content_v1.2.pix   
Set value                                                                             0     32   80a3d64a-d0e7-4a59-a7c2-dab8498ae425  fill_kv_content_v1.2.pix   
Цикл по заказам                                                                       0     78   a0b69e67-5efe-4b61-bf36-aaf60ab26b78  fill_kv_content_v1.2.pix   
Set value                                                                             0     47   5c45baf0-1bbe-4ba1-878a-ffdf39a26106  fill_kv_content_v1.2.pix   
Set value                                                                             0     47   15b4db9b-b21b-4b01-8799-bc3bb38d8a57  fill_kv_content_v1.2.pix   
Set value                                                                             0     47   7f59a619-e831-49b3-9060-8a0c7967a6a1  fill_kv_content_v1.2.pix   
Цикл по KGR                                                                           0     136  8852b5eb-0f93-45a0-b477-228a02f6d913  fill_kv_content_v1.2.pix   
Нажать на клавиатуре Insert для добавить                                              0     90   b48eeb4f-8ad7-4992-8503-c70d44d96dd3  fill_kv_content_v1.2.pix   
Set value                                                                             0     90   db97ac3c-0bb1-4321-8512-d09534f7a99e  fill_kv_content_v1.2.pix   
Set value                                                                             0     90   bb25028b-973f-45f7-ac3b-457a33b99750  fill_kv_content_v1.2.pix   
Set value                                                                             0     90   f8431c30-2472-4d6e-8cae-216bdc38a685  fill_kv_content_v1.2.pix   
отчет                                                                                 0     90   cd772760-8504-4cda-a3ef-b79a3873d4b4  fill_kv_content_v1.2.pix   
False                                                                                 0     90   02f8a9ee-1924-48cb-a31b-cbb087cb3d32  fill_kv_content_v1.2.pix   
Set value                                                                             0     90   2738189b-432f-43c1-9bd6-8a223dd53f86  fill_kv_content_v1.2.pix   
Try/Catch окно Фильтр ТМЦ                                                             0     91   2785b6cf-176f-45c1-9a23-15dabff8945f  fill_kv_content_v1.2.pix   
Try                                                                                   0     90   da6f363a-096f-445a-9f75-9047c0d0ddd6  fill_kv_content_v1.2.pix   
Set value                                                                             0     89   5fc44f26-837f-4a1a-9982-5931ede979cb  fill_kv_content_v1.2.pix   
Change language                                                                       0     89   b20aae9e-bfa4-4fa2-915f-c3dbeeb6c609  fill_kv_content_v1.2.pix   
Enter text using the keyboard                                                         0     89   39d70a89-82c5-4463-9ff0-e9e766b73c30  fill_kv_content_v1.2.pix   
Фильтр ТМЦ - Нажатие кнопки выбрать                                                   0     89   98a30b53-9213-470b-baa6-237cf7c92679  fill_kv_content_v1.2.pix   
Set value                                                                             0     89   63206d58-1da3-4675-aace-e91afd1c936d  fill_kv_content_v1.2.pix   
Press hotkey                                                                          0     89   aebafd70-2d08-489b-8c03-d3221a1aef05  fill_kv_content_v1.2.pix   
Попытка обработки зависания окна                                                      0     89   784d5acc-9eb0-4e2b-ad63-e150ae4ab4d1  fill_kv_content_v1.2.pix   
Conditional operator                                                                  0     89   99827c40-d4f7-4db1-8650-48386466e7da  fill_kv_content_v1.2.pix   
False                                                                                 0     89   18c3d53e-08a8-4492-a923-bf3c7784a4c8  fill_kv_content_v1.2.pix   
Try/Catch окно Свойства                                                               0     89   e6e1f85c-37ef-44fc-b9b4-f944ee298dce  fill_kv_content_v1.2.pix   
Try                                                                                   0     89   04ea9c8a-6754-4312-89b5-3d9440d17180  fill_kv_content_v1.2.pix   
[NEW] Нажатие кнопки заказ "..."                                                      0     89   12c71e23-f9eb-4264-948d-39b721ea66c7  fill_kv_content_v1.2.pix   
Set value                                                                             0     89   0e7922f4-a5fe-4abf-8097-c264c26727b3  fill_kv_content_v1.2.pix   
Set value                                                                             0     534  99011c9d-b082-452b-818d-f205308332db  fill_kv_content_v1.2.pix   
Press hotkey                                                                          0     89   d355a666-0340-4284-86f6-3216f1ff6e56  fill_kv_content_v1.2.pix   
Try/Catch окно "Выбор заказа"                                                         0     89   ae8d6cd7-014a-449e-a3b7-bcda5ab6d42f  fill_kv_content_v1.2.pix   
Try                                                                                   0     89   7f0435f0-47d6-4a1e-95fc-a5b5be5f8e97  fill_kv_content_v1.2.pix   
Проверка окна "Выбор заказа"                                                          0     89   ac842cf3-1ce3-4079-b77c-3001ed831500  fill_kv_content_v1.2.pix   
Ctrl-A select all                                                                     0     89   7b7ae652-5541-4195-80f2-7f122065476d  fill_kv_content_v1.2.pix   
Ввести номер заказа                                                                   0     89   53a058c0-b9fc-4b8f-a048-d49d3367af00  fill_kv_content_v1.2.pix   
[NEW]Окно выбора заказа - клик на кнопку выбрать                                      0     89   616c869c-2044-4152-8e1a-17368686bded  fill_kv_content_v1.2.pix   
Set value                                                                             0     89   a808c401-d57f-4727-a0dd-419c756585f1  fill_kv_content_v1.2.pix   
Press hotkey                                                                          0     89   ba03346e-3493-40c8-97ad-2fc02f650813  fill_kv_content_v1.2.pix   
Нажать клавишу "Вниз" для выделения                                                   0     89   f39f305a-d4a1-40e8-8338-dc72c7ab1fd2  fill_kv_content_v1.2.pix   
Закрытие окна                                                                         0     89   094ffc75-42d2-42ed-8e93-4f125a16c26b  fill_kv_content_v1.2.pix   
ТАБ 2 раза                                                                            0     89   f059299b-daa7-4a63-8d44-9fca68325e13  fill_kv_content_v1.2.pix   
Press hotkey                                                                          0     89   7564e1b2-1c4e-48d3-a084-37c1b40b3e6f  fill_kv_content_v1.2.pix   
Press hotkey                                                                          0     89   0e3bdd17-a120-4133-b84d-210ae3cea578  fill_kv_content_v1.2.pix   
Ввести количество                                                                     0     89   a3da575a-e906-4a4f-9802-6e9ba1f5d83c  fill_kv_content_v1.2.pix   
закрыть окно "Состав комплектовочной ведомости"                                       0     31   ef96d2e8-3c07-4cdc-9dbb-c641bee08264  fill_kv_content_v1.2.pix   
по окончании итерации запись в отчет "Выполнено"                                      0     31   7e28b0c0-c319-4c39-b2a2-e43921599313  proces_rl_row.pix          
взять следующую строку                                                                0     33   b10a7fd4-dec8-4362-8c52-75894721f63b  proces_rl_row.pix          
Catch                                                                                 0     1    d15d1933-076c-43f7-8699-7d8715165185  fill_kv_content_v1.2.pix   
Обработка ошибки вставки номенклатуры                                                 0     1    5b0df087-a1b9-4e34-8c83-0352769c6c66  fill_kv_content_v1.2.pix   
Conditional operator                                                                  0     1    c2588d77-5a05-4534-a27c-7a28a63a60a6  fill_kv_content_v1.2.pix   
False                                                                                 0     1    ddec5c02-958a-4888-aa2c-6a62ca3b3c2e  fill_kv_content_v1.2.pix   
Catch                                                                                 0     1    9001e54a-ae3f-42d3-8a87-31f249eddaf4  fill_kv_content_v1.2.pix   
закрыть окно "Состав комплектовочной ведомости"                                       0     1    807c1905-bcb6-4870-8f82-4f944d85f386  fill_kv_content_v1.2.pix   
Throw an exception                                                                    0     1    333f13fb-cac8-40cd-956b-bd440a430626  fill_kv_content_v1.2.pix   
Catch                                                                                 0     2    805d44b5-d5b7-447a-abf3-8a2a54889325  proces_rl_row.pix          
запись ошибки в лог                                                                   0     2    0a5f7041-ba4c-4039-9036-aef013cd490e  proces_rl_row.pix          
отчет: внести данные об ошибке в таблицу                                              0     2    c3fe1c3d-2966-490a-ac19-22444fef0399  proces_rl_row.pix          
отчет: записать текущую дату в ячейку                                                 0     2    fb5c681f-4667-48cf-92d9-b2c2783b62ba  proces_rl_row.pix          
отчет:  заказ и номенклатура, на которой произошла ошибка заполнения КВ               0     2    1ae31695-8caa-4ad6-a7f4-b6c167c8ee22  proces_rl_row.pix          
write error log                                                                       0     2    ee062a34-008e-4059-826c-385920d7e36a  proces_rl_row.pix          
True                                                                                  0     1    61795470-1f1c-45d8-8b81-7a79c4009b16  check_opened_ml.pix        
Catch                                                                                 0     1    800c60df-6e1a-44cb-ae64-23e6824dd1b1  open_kv_create.pix         
